<?xml version="1.0" encoding="utf-8"?>
<!-- Generator: Adobe Illustrator 23.0.4, SVG Export Plug-In . SVG Version: 6.00 Build 0)  -->
<svg version="1.1" id="Layer_1" xmlns="http://www.w3.org/2000/svg" xmlns:xlink="http://www.w3.org/1999/xlink" x="0px" y="0px"
	 viewBox="0 0 1011.73 28.39" style="enable-background:new 0 0 1011.73 28.39;" xml:space="preserve">
<style type="text/css">
	.st0{fill:none;stroke:#B1B3B6;stroke-width:3;stroke-miterlimit:10;}
</style>
<g>
	<circle class="st0" cx="997.53" cy="14.19" r="12.69"/>
	<circle class="st0" cx="14.19" cy="14.19" r="12.69"/>
	<line class="st0" x1="26.89" y1="14.19" x2="984.84" y2="14.19"/>
</g>
</svg>
